                                        ; Entry Point
                                        ; --- START PROC L0000 ---
0000: C3 00 01                   L0000: JP      L0100

0003: FF                         L0003: DB      0FFh
0004: FF                                DB      0FFh
0005: FF                                DB      0FFh
0006: FF                                DB      0FFh
0007: FF                                DB      0FFh
0008: ED                                DB      0EDh
0009: 4D                                DB      4Dh     ; 'M'
000A: FF                                DB      0FFh
000B: FF                                DB      0FFh
000C: FF                                DB      0FFh
000D: FF                                DB      0FFh
000E: FF                                DB      0FFh
000F: FF                                DB      0FFh
0010: ED                                DB      0EDh
0011: 4D                                DB      4Dh     ; 'M'
0012: FF                                DB      0FFh
0013: FF                                DB      0FFh
0014: FF                                DB      0FFh
0015: FF                                DB      0FFh
0016: FF                                DB      0FFh
0017: FF                                DB      0FFh
0018: ED                                DB      0EDh
0019: 4D                                DB      4Dh     ; 'M'
001A: FF                                DB      0FFh
001B: FF                                DB      0FFh
001C: FF                                DB      0FFh
001D: FF                                DB      0FFh
001E: FF                                DB      0FFh
001F: FF                                DB      0FFh
0020: ED                                DB      0EDh
0021: 4D                                DB      4Dh     ; 'M'
0022: FF                                DB      0FFh
0023: FF                                DB      0FFh
0024: FF                                DB      0FFh
0025: FF                                DB      0FFh
0026: FF                                DB      0FFh
0027: FF                                DB      0FFh
0028: ED                                DB      0EDh
0029: 4D                                DB      4Dh     ; 'M'
002A: FF                                DB      0FFh
002B: FF                                DB      0FFh
002C: FF                                DB      0FFh
002D: FF                                DB      0FFh
002E: FF                                DB      0FFh
002F: FF                                DB      0FFh
0030: ED                                DB      0EDh
0031: 4D                                DB      4Dh     ; 'M'
0032: FF                                DB      0FFh
0033: FF                                DB      0FFh
0034: FF                                DB      0FFh
0035: FF                                DB      0FFh
0036: FF                                DB      0FFh
0037: FF                                DB      0FFh
0038: ED                                DB      0EDh
0039: 4D                                DB      4Dh     ; 'M'
003A: FF                                DB      0FFh
003B: FF                                DB      0FFh
003C: FF                                DB      0FFh
003D: FF                                DB      0FFh
003E: FF                                DB      0FFh
003F: FF                                DB      0FFh
0040: FF                                DB      0FFh
0041: FF                                DB      0FFh
0042: FF                                DB      0FFh
0043: FF                                DB      0FFh
0044: FF                                DB      0FFh
0045: FF                                DB      0FFh
0046: FF                                DB      0FFh
0047: FF                                DB      0FFh
0048: FF                                DB      0FFh
0049: FF                                DB      0FFh
004A: FF                                DB      0FFh
004B: FF                                DB      0FFh
004C: FF                                DB      0FFh
004D: FF                                DB      0FFh
004E: FF                                DB      0FFh
004F: FF                                DB      0FFh
0050: FF                                DB      0FFh
0051: FF                                DB      0FFh
0052: FF                                DB      0FFh
0053: FF                                DB      0FFh
0054: FF                                DB      0FFh
0055: FF                                DB      0FFh
0056: FF                                DB      0FFh
0057: FF                                DB      0FFh
0058: FF                                DB      0FFh
0059: FF                                DB      0FFh
005A: FF                                DB      0FFh
005B: FF                                DB      0FFh
005C: FF                                DB      0FFh
005D: FF                                DB      0FFh
005E: FF                                DB      0FFh
005F: FF                                DB      0FFh
0060: FF                                DB      0FFh
0061: FF                                DB      0FFh
0062: FF                                DB      0FFh
0063: FF                                DB      0FFh
0064: FF                                DB      0FFh
0065: FF                                DB      0FFh
0066: FF                                DB      0FFh
0067: FF                                DB      0FFh
0068: FF                                DB      0FFh
0069: FF                                DB      0FFh
006A: FF                                DB      0FFh
006B: FF                                DB      0FFh
006C: FF                                DB      0FFh
006D: FF                                DB      0FFh
006E: FF                                DB      0FFh
006F: FF                                DB      0FFh
0070: FF                                DB      0FFh
0071: FF                                DB      0FFh
0072: FF                                DB      0FFh
0073: FF                                DB      0FFh
0074: FF                                DB      0FFh
0075: FF                                DB      0FFh
0076: FF                                DB      0FFh
0077: FF                                DB      0FFh
0078: FF                                DB      0FFh
0079: FF                                DB      0FFh
007A: FF                                DB      0FFh
007B: FF                                DB      0FFh
007C: FF                                DB      0FFh
007D: FF                                DB      0FFh
007E: FF                                DB      0FFh
007F: FF                                DB      0FFh
0080: FF                                DB      0FFh
0081: FF                                DB      0FFh
0082: FF                                DB      0FFh
0083: FF                                DB      0FFh
0084: FF                                DB      0FFh
0085: FF                                DB      0FFh
0086: FF                                DB      0FFh
0087: FF                                DB      0FFh
0088: FF                                DB      0FFh
0089: FF                                DB      0FFh
008A: FF                                DB      0FFh
008B: FF                                DB      0FFh
008C: FF                                DB      0FFh
008D: FF                                DB      0FFh
008E: FF                                DB      0FFh
008F: FF                                DB      0FFh
0090: FF                                DB      0FFh
0091: FF                                DB      0FFh
0092: FF                                DB      0FFh
0093: FF                                DB      0FFh
0094: FF                                DB      0FFh
0095: FF                                DB      0FFh
0096: FF                                DB      0FFh
0097: FF                                DB      0FFh
0098: FF                                DB      0FFh
0099: FF                                DB      0FFh
009A: FF                                DB      0FFh
009B: FF                                DB      0FFh
009C: FF                                DB      0FFh
009D: FF                                DB      0FFh
009E: FF                                DB      0FFh
009F: FF                                DB      0FFh
00A0: FF                                DB      0FFh
00A1: FF                                DB      0FFh
00A2: FF                                DB      0FFh
00A3: FF                                DB      0FFh
00A4: FF                                DB      0FFh
00A5: FF                                DB      0FFh
00A6: FF                                DB      0FFh
00A7: FF                                DB      0FFh
00A8: FF                                DB      0FFh
00A9: FF                                DB      0FFh
00AA: FF                                DB      0FFh
00AB: FF                                DB      0FFh
00AC: FF                                DB      0FFh
00AD: FF                                DB      0FFh
00AE: FF                                DB      0FFh
00AF: FF                                DB      0FFh
00B0: FF                                DB      0FFh
00B1: FF                                DB      0FFh
00B2: FF                                DB      0FFh
00B3: FF                                DB      0FFh
00B4: FF                                DB      0FFh
00B5: FF                                DB      0FFh
00B6: FF                                DB      0FFh
00B7: FF                                DB      0FFh
00B8: FF                                DB      0FFh
00B9: FF                                DB      0FFh
00BA: FF                                DB      0FFh
00BB: FF                                DB      0FFh
00BC: FF                                DB      0FFh
00BD: FF                                DB      0FFh
00BE: FF                                DB      0FFh
00BF: FF                                DB      0FFh
00C0: FF                                DB      0FFh
00C1: FF                                DB      0FFh
00C2: FF                                DB      0FFh
00C3: FF                                DB      0FFh
00C4: FF                                DB      0FFh
00C5: FF                                DB      0FFh
00C6: FF                                DB      0FFh
00C7: FF                                DB      0FFh
00C8: FF                                DB      0FFh
00C9: FF                                DB      0FFh
00CA: FF                                DB      0FFh
00CB: FF                                DB      0FFh
00CC: FF                                DB      0FFh
00CD: FF                                DB      0FFh
00CE: FF                                DB      0FFh
00CF: FF                                DB      0FFh
00D0: FF                                DB      0FFh
00D1: FF                                DB      0FFh
00D2: FF                                DB      0FFh
00D3: FF                                DB      0FFh
00D4: FF                                DB      0FFh
00D5: FF                                DB      0FFh
00D6: FF                                DB      0FFh
00D7: FF                                DB      0FFh
00D8: FF                                DB      0FFh
00D9: FF                                DB      0FFh
00DA: FF                                DB      0FFh
00DB: FF                                DB      0FFh
00DC: FF                                DB      0FFh
00DD: FF                                DB      0FFh
00DE: FF                                DB      0FFh
00DF: FF                                DB      0FFh
00E0: FF                                DB      0FFh
00E1: FF                                DB      0FFh
00E2: FF                                DB      0FFh
00E3: FF                                DB      0FFh
00E4: FF                                DB      0FFh
00E5: FF                                DB      0FFh
00E6: FF                                DB      0FFh
00E7: FF                                DB      0FFh
00E8: FF                                DB      0FFh
00E9: FF                                DB      0FFh
00EA: FF                                DB      0FFh
00EB: FF                                DB      0FFh
00EC: FF                                DB      0FFh
00ED: FF                                DB      0FFh
00EE: FF                                DB      0FFh
00EF: FF                                DB      0FFh
00F0: FF                                DB      0FFh
00F1: FF                                DB      0FFh
00F2: FF                                DB      0FFh
00F3: FF                                DB      0FFh
00F4: FF                                DB      0FFh
00F5: FF                                DB      0FFh
00F6: FF                                DB      0FFh
00F7: FF                                DB      0FFh
00F8: FF                                DB      0FFh
00F9: FF                                DB      0FFh
00FA: FF                                DB      0FFh
00FB: FF                                DB      0FFh
00FC: FF                                DB      0FFh
00FD: FF                                DB      0FFh
00FE: FF                                DB      0FFh
00FF: FF                                DB      0FFh

0100: 06 40                      L0100: LD      B,40h   ; '@'
0102: 10 FE                      L0102: DJNZ    L0102
0104: 31 00 FF                          LD      SP,0FF00h
0107: CD 4B 08                          CALL    L084B
010A: CD 10 01                          CALL    L0110
010D: 18 FE                      L010D: JR      L010D

010F: FF                         L010F: DB      0FFh

                                        ; --- START PROC L0110 ---
0110: DD E5                      L0110: PUSH    IX
0112: DD 21 00 00                       LD      IX,0000h
0116: DD 39                             ADD     IX,SP
0118: 21 D3 FF                          LD      HL,0FFD3h
011B: 39                                ADD     HL,SP
011C: F9                                LD      SP,HL
011D: 21 00 F4                          LD      HL,0F400h
0120: 06 32                             LD      B,32h   ; '2'
0122: 36 00                      L0122: LD      (HL),00h
0124: 23                                INC     HL
0125: 10 FB                             DJNZ    L0122
0127: 21 77 02                          LD      HL,0277h
012A: 22 00 F4                          LD      (0F400h),HL
012D: 21 A1 02                          LD      HL,02A1h
0130: 22 02 F4                          LD      (0F402h),HL
0133: CD 2E 08                          CALL    L082E
0136: 21 00 F4                          LD      HL,0F400h
0139: E5                                PUSH    HL
013A: CD A3 06                          CALL    L06A3
013D: F1                                POP     AF
013E: 4D                                LD      C,L
013F: 44                                LD      B,H
0140: 79                                LD      A,C
0141: D6 03                             SUB     03h
0143: 20 39                             JR      NZ,L017E
0145: B0                                OR      B
0146: 20 36                             JR      NZ,L017E
0148: 21 32 F4                          LD      HL,0F432h
014B: 11 C6 01                          LD      DE,01C6h
014E: 19                                ADD     HL,DE
014F: 7E                                LD      A,(HL)
0150: FD 21 32 F6                       LD      IY,0F632h
0154: FD 77 00                          LD      (IY+00h),A
0157: 23                                INC     HL
0158: 7E                                LD      A,(HL)
0159: FD 77 01                          LD      (IY+01h),A
015C: 23                                INC     HL
015D: 7E                                LD      A,(HL)
015E: FD 77 02                          LD      (IY+02h),A
0161: 23                                INC     HL
0162: 7E                                LD      A,(HL)
0163: FD 77 03                          LD      (IY+03h),A
0166: FD 7E 03                          LD      A,(IY+03h)
0169: FD B6 02                          OR      (IY+02h)
016C: FD B6 01                          OR      (IY+01h)
016F: FD B6 00                          OR      (IY+00h)
0172: 28 0A                             JR      Z,L017E
0174: 21 00 F4                          LD      HL,0F400h
0177: E5                                PUSH    HL
0178: CD A3 06                          CALL    L06A3
017B: F1                                POP     AF
017C: 4D                                LD      C,L
017D: 44                                LD      B,H
017E: 78                         L017E: LD      A,B
017F: B1                                OR      C
0180: 28 07                             JR      Z,L0189
0182: 3E 81                             LD      A,81h
0184: D3 A0                             OUT     (0A0h),A
0186: C3 66 02                          JP      L0266

0189: 21 01 00                   L0189: LD      HL,0001h
018C: 39                                ADD     HL,SP
018D: 4D                                LD      C,L
018E: 44                                LD      B,H
018F: 59                                LD      E,C
0190: 50                                LD      D,B
0191: C5                                PUSH    BC
0192: D5                                PUSH    DE
0193: 21 6B 02                          LD      HL,026Bh
0196: E5                                PUSH    HL
0197: 21 00 F4                          LD      HL,0F400h
019A: E5                                PUSH    HL
019B: CD 80 03                          CALL    L0380
019E: F1                                POP     AF
019F: F1                                POP     AF
01A0: F1                                POP     AF
01A1: C1                                POP     BC
01A2: 7C                                LD      A,H
01A3: B5                                OR      L
01A4: 28 07                             JR      Z,L01AD
01A6: 3E 82                             LD      A,82h
01A8: D3 A0                             OUT     (0A0h),A
01AA: C3 66 02                          JP      L0266

01AD: DD 36 F8 00                L01AD: LD      (IX+0F8h),00h
01B1: DD 36 F9 40                       LD      (IX+0F9h),40h   ; '@'
01B5: C5                                PUSH    BC
01B6: FD E1                             POP     IY
01B8: FD 7E 10                          LD      A,(IY+10h)
01BB: DD 77 FA                          LD      (IX+0FAh),A
01BE: FD 7E 11                          LD      A,(IY+11h)
01C1: DD 77 FB                          LD      (IX+0FBh),A
01C4: FD 7E 12                          LD      A,(IY+12h)
01C7: DD 77 FC                          LD      (IX+0FCh),A
01CA: FD 7E 13                          LD      A,(IY+13h)
01CD: DD 77 FD                          LD      (IX+0FDh),A
01D0: DD 71 FE                          LD      (IX+0FEh),C
01D3: DD 70 FF                          LD      (IX+0FFh),B
01D6: 01 00 40                          LD      BC,4000h
01D9: DD 36 D3 00                       LD      (IX+0D3h),00h
01DD: DD 6E FE                   L01DD: LD      L,(IX+0FEh)
01E0: DD 66 FF                          LD      H,(IX+0FFh)
01E3: 11 14 00                          LD      DE,0014h
01E6: 19                                ADD     HL,DE
01E7: 5E                                LD      E,(HL)
01E8: 23                                INC     HL
01E9: 56                                LD      D,(HL)
01EA: 23                                INC     HL
01EB: 23                                INC     HL
01EC: 7E                                LD      A,(HL)
01ED: 2B                                DEC     HL
01EE: 6E                                LD      L,(HL)
01EF: 67                                LD      H,A
01F0: DD 7E D3                          LD      A,(IX+0D3h)
01F3: DD 77 F4                          LD      (IX+0F4h),A
01F6: DD 36 F5 00                       LD      (IX+0F5h),00h
01FA: DD 36 F6 00                       LD      (IX+0F6h),00h
01FE: DD 36 F7 00                       LD      (IX+0F7h),00h
0202: DD 7E F4                          LD      A,(IX+0F4h)
0205: 93                                SUB     E
0206: DD 7E F5                          LD      A,(IX+0F5h)
0209: 9A                                SBC     A,D
020A: DD 7E F6                          LD      A,(IX+0F6h)
020D: 9D                                SBC     A,L
020E: DD 7E F7                          LD      A,(IX+0F7h)
0211: 9C                                SBC     A,H
0212: 30 47                             JR      NC,L025B
0214: 59                                LD      E,C
0215: 50                                LD      D,B
0216: C5                                PUSH    BC
0217: D5                                PUSH    DE
0218: DD 6E FC                          LD      L,(IX+0FCh)
021B: DD 66 FD                          LD      H,(IX+0FDh)
021E: E5                                PUSH    HL
021F: DD 6E FA                          LD      L,(IX+0FAh)
0222: DD 66 FB                          LD      H,(IX+0FBh)
0225: E5                                PUSH    HL
0226: CD 56 07                          CALL    L0756
0229: F1                                POP     AF
022A: F1                                POP     AF
022B: F1                                POP     AF
022C: C1                                POP     BC
022D: CB 45                             BIT     0,L
022F: 20 06                             JR      NZ,L0237
0231: 3E 83                             LD      A,83h
0233: D3 A0                             OUT     (0A0h),A
0235: 18 2F                             JR      L0266

0237: 21 00 02                   L0237: LD      HL,0200h
023A: 09                                ADD     HL,BC
023B: 4D                                LD      C,L
023C: 44                                LD      B,H
023D: DD 71 F8                          LD      (IX+0F8h),C
0240: DD 70 F9                          LD      (IX+0F9h),B
0243: DD 34 FA                          INC     (IX+0FAh)
0246: 20 0D                             JR      NZ,L0255
0248: DD 34 FB                          INC     (IX+0FBh)
024B: 20 08                             JR      NZ,L0255
024D: DD 34 FC                          INC     (IX+0FCh)
0250: 20 03                             JR      NZ,L0255
0252: DD 34 FD                          INC     (IX+0FDh)
0255: DD 34 D3                   L0255: INC     (IX+0D3h)
0258: C3 DD 01                          JP      L01DD

025B: DD 4E F8                   L025B: LD      C,(IX+0F8h)
025E: DD 46 F9                          LD      B,(IX+0F9h)
0261: C5                                PUSH    BC
0262: CD A2 02                          CALL    L02A2
0265: F1                                POP     AF
0266: DD F9                      L0266: LD      SP,IX
0268: DD E1                             POP     IX
026A: C9                                RET

026B: 66                         L026B: DB      66h     ; 'f'
026C: 70                                DB      70h     ; 'p'
026D: 67                                DB      67h     ; 'g'
026E: 61                                DB      61h     ; 'a'
026F: 62                                DB      62h     ; 'b'
0270: 65                                DB      65h     ; 'e'
0271: 65                                DB      65h     ; 'e'
0272: 2E                                DB      2Eh     ; '.'
0273: 73                                DB      73h     ; 's'
0274: 79                                DB      79h     ; 'y'
0275: 73                                DB      73h     ; 's'
0276: 00                                DB      00h
0277: 21                                DB      21h     ; '!'
0278: 32                                DB      32h     ; '2'
0279: F4                                DB      0F4h
027A: E5                                DB      0E5h
027B: FD                                DB      0FDh
027C: 21                                DB      21h     ; '!'
027D: 06                                DB      06h
027E: 00                                DB      00h
027F: FD                                DB      0FDh
0280: 39                                DB      39h     ; '9'
0281: FD                                DB      0FDh
0282: 6E                                DB      6Eh     ; 'n'
0283: 02                                DB      02h
0284: FD                                DB      0FDh
0285: 66                                DB      66h     ; 'f'
0286: 03                                DB      03h
0287: E5                                DB      0E5h
0288: FD                                DB      0FDh
0289: 6E                                DB      6Eh     ; 'n'
028A: 00                                DB      00h
028B: FD                                DB      0FDh
028C: 66                                DB      66h     ; 'f'
028D: 01                                DB      01h
028E: E5                                DB      0E5h
028F: CD                                DB      0CDh
0290: 56                                DB      56h     ; 'V'
0291: 07                                DB      07h
0292: F1                                DB      0F1h
0293: F1                                DB      0F1h
0294: F1                                DB      0F1h
0295: CB                                DB      0CBh
0296: 45                                DB      45h     ; 'E'
0297: 20                                DB      20h     ; ' '
0298: 04                                DB      04h
0299: 21                                DB      21h     ; '!'
029A: 00                                DB      00h
029B: 00                                DB      00h
029C: C9                                DB      0C9h
029D: 21                                DB      21h     ; '!'
029E: 32                                DB      32h     ; '2'
029F: F4                                DB      0F4h
02A0: C9                                DB      0C9h
02A1: C9                                DB      0C9h

                                        ; --- START PROC L02A2 ---
02A2: 21 C8 02                   L02A2: LD      HL,02C8h
02A5: 11 00 FF                          LD      DE,0FF00h
02A8: 01 11 00                          LD      BC,0011h
02AB: ED B0                             LDIR
02AD: FD 21 02 00                       LD      IY,0002h
02B1: FD 39                             ADD     IY,SP
02B3: FD 66 01                          LD      H,(IY+01h)
02B6: FD 6E 00                          LD      L,(IY+00h)
02B9: 01 00 C0                          LD      BC,0C000h
02BC: 09                                ADD     HL,BC
02BD: E5                                PUSH    HL
02BE: C1                                POP     BC
02BF: 21 00 40                          LD      HL,4000h
02C2: 11 00 00                          LD      DE,0000h
02C5: C3 00 FF                          JP      0FF00h

02C8: 3E                         L02C8: DB      3Eh     ; '>'
02C9: 00                                DB      00h
02CA: D3                                DB      0D3h
02CB: D0                                DB      0D0h
02CC: ED                                DB      0EDh
02CD: B0                                DB      0B0h
02CE: ED                                DB      0EDh
02CF: 4B                                DB      4Bh     ; 'K'
02D0: 32                                DB      32h     ; '2'
02D1: F6                                DB      0F6h
02D2: ED                                DB      0EDh
02D3: 5B                                DB      5Bh     ; '['
02D4: 34                                DB      34h     ; '4'
02D5: F6                                DB      0F6h
02D6: C3                                DB      0C3h
02D7: 00                                DB      00h
02D8: 01                                DB      01h
02D9: C9                                DB      0C9h
02DA: CD                                DB      0CDh
02DB: 9A                                DB      9Ah
02DC: 07                                DB      07h
02DD: F5                                DB      0F5h
02DE: DD                                DB      0DDh
02DF: 4E                                DB      4Eh     ; 'N'
02E0: 0A                                DB      0Ah
02E1: DD                                DB      0DDh
02E2: 46                                DB      46h     ; 'F'
02E3: 0B                                DB      0Bh
02E4: 69                                DB      69h     ; 'i'
02E5: 60                                DB      60h     ; '`'
02E6: 23                                DB      23h     ; '#'
02E7: 23                                DB      23h     ; '#'
02E8: 5E                                DB      5Eh     ; '^'
02E9: 23                                DB      23h     ; '#'
02EA: 56                                DB      56h     ; 'V'
02EB: DD                                DB      0DDh
02EC: 7E                                DB      7Eh     ; '~'
02ED: 08                                DB      08h
02EE: DD                                DB      0DDh
02EF: 77                                DB      77h     ; 'w'
02F0: FE                                DB      0FEh
02F1: DD                                DB      0DDh
02F2: 7E                                DB      7Eh     ; '~'
02F3: 09                                DB      09h
02F4: DD                                DB      0DDh
02F5: 77                                DB      77h     ; 'w'
02F6: FF                                DB      0FFh
02F7: C5                                DB      0C5h
02F8: D5                                DB      0D5h
02F9: DD                                DB      0DDh
02FA: 6E                                DB      6Eh     ; 'n'
02FB: FE                                DB      0FEh
02FC: DD                                DB      0DDh
02FD: 66                                DB      66h     ; 'f'
02FE: FF                                DB      0FFh
02FF: E5                                DB      0E5h
0300: CD                                DB      0CDh
0301: A4                                DB      0A4h
0302: 07                                DB      07h
0303: F1                                DB      0F1h
0304: F1                                DB      0F1h
0305: 5D                                DB      5Dh     ; ']'
0306: C1                                DB      0C1h
0307: 7C                                DB      7Ch     ; '|'
0308: B3                                DB      0B3h
0309: 20                                DB      20h     ; ' '
030A: 21                                DB      21h     ; '!'
030B: 21                                DB      21h     ; '!'
030C: 04                                DB      04h
030D: 00                                DB      00h
030E: 09                                DB      09h
030F: EB                                DB      0EBh
0310: C5                                DB      0C5h
0311: 21                                DB      21h     ; '!'
0312: 08                                DB      08h
0313: 00                                DB      00h
0314: 39                                DB      39h     ; '9'
0315: 01                                DB      01h
0316: 04                                DB      04h
0317: 00                                DB      00h
0318: ED                                DB      0EDh
0319: B0                                DB      0B0h
031A: C1                                DB      0C1h
031B: 21                                DB      21h     ; '!'
031C: 08                                DB      08h
031D: 00                                DB      00h
031E: 09                                DB      09h
031F: DD                                DB      0DDh
0320: 7E                                DB      7Eh     ; '~'
0321: FE                                DB      0FEh
0322: 77                                DB      77h     ; 'w'
0323: 23                                DB      23h     ; '#'
0324: DD                                DB      0DDh
0325: 7E                                DB      7Eh     ; '~'
0326: FF                                DB      0FFh
0327: 77                                DB      77h     ; 'w'
0328: 2E                                DB      2Eh     ; '.'
0329: 00                                DB      00h
032A: 18                                DB      18h
032B: 02                                DB      02h
032C: 2E                                DB      2Eh     ; '.'
032D: 01                                DB      01h
032E: F1                                DB      0F1h
032F: DD                                DB      0DDh
0330: E1                                DB      0E1h
0331: C9                                DB      0C9h

                                        ; --- START PROC L0332 ---
0332: CD 9A 07                   L0332: CALL    L079A
0335: DD 4E 04                          LD      C,(IX+04h)
0338: DD 46 05                          LD      B,(IX+05h)
033B: 69                                LD      L,C
033C: 60                                LD      H,B
033D: 23                                INC     HL
033E: 23                                INC     HL
033F: 5E                                LD      E,(HL)
0340: 23                                INC     HL
0341: 56                                LD      D,(HL)
0342: C5                                PUSH    BC
0343: D5                                PUSH    DE
0344: CD FC 07                          CALL    L07FC
0347: F1                                POP     AF
0348: C1                                POP     BC
0349: CB 45                             BIT     0,L
034B: 20 05                             JR      NZ,L0352
034D: 21 05 00                          LD      HL,0005h
0350: 18 2B                             JR      L037D

0352: DD 5E 04                   L0352: LD      E,(IX+04h)
0355: DD 56 05                          LD      D,(IX+05h)
0358: 69                                LD      L,C
0359: 60                                LD      H,B
035A: 4E                                LD      C,(HL)
035B: 23                                INC     HL
035C: 46                                LD      B,(HL)
035D: D5                                PUSH    DE
035E: 21 DA 02                          LD      HL,02DAh
0361: E5                                PUSH    HL
0362: C5                                PUSH    BC
0363: CD 09 06                          CALL    L0609
0366: F1                                POP     AF
0367: F1                                POP     AF
0368: F1                                POP     AF
0369: 7D                                LD      A,L
036A: D6 07                             SUB     07h
036C: 20 08                             JR      NZ,L0376
036E: B4                                OR      H
036F: 20 05                             JR      NZ,L0376
0371: 21 00 00                          LD      HL,0000h
0374: 18 07                             JR      L037D

0376: 7C                         L0376: LD      A,H
0377: B5                                OR      L
0378: 20 03                             JR      NZ,L037D
037A: 21 06 00                          LD      HL,0006h
037D: DD E1                      L037D: POP     IX
037F: C9                                RET

                                        ; --- START PROC L0380 ---
0380: CD 9A 07                   L0380: CALL    L079A
0383: 21 F6 FF                          LD      HL,0FFF6h
0386: 39                                ADD     HL,SP
0387: F9                                LD      SP,HL
0388: 21 00 00                          LD      HL,0000h
038B: 39                                ADD     HL,SP
038C: DD 7E 04                          LD      A,(IX+04h)
038F: 77                                LD      (HL),A
0390: 23                                INC     HL
0391: DD 7E 05                          LD      A,(IX+05h)
0394: 77                                LD      (HL),A
0395: 21 00 00                          LD      HL,0000h
0398: 39                                ADD     HL,SP
0399: 4D                                LD      C,L
039A: 44                                LD      B,H
039B: 21 04 00                          LD      HL,0004h
039E: 09                                ADD     HL,BC
039F: AF                                XOR     A
03A0: 77                                LD      (HL),A
03A1: 23                                INC     HL
03A2: 77                                LD      (HL),A
03A3: 23                                INC     HL
03A4: AF                                XOR     A
03A5: 77                                LD      (HL),A
03A6: 23                                INC     HL
03A7: 77                                LD      (HL),A
03A8: 21 08 00                          LD      HL,0008h
03AB: 09                                ADD     HL,BC
03AC: AF                                XOR     A
03AD: 77                                LD      (HL),A
03AE: 23                                INC     HL
03AF: 77                                LD      (HL),A
03B0: 2B                                DEC     HL
03B1: C5                                PUSH    BC
03B2: FD E1                             POP     IY
03B4: FD 23                             INC     IY
03B6: FD 23                             INC     IY
03B8: DD 7E 06                          LD      A,(IX+06h)
03BB: FD 77 00                          LD      (IY+00h),A
03BE: DD 7E 07                          LD      A,(IX+07h)
03C1: FD 77 01                          LD      (IY+01h),A
03C4: E5                                PUSH    HL
03C5: C5                                PUSH    BC
03C6: CD 32 03                          CALL    L0332
03C9: F1                                POP     AF
03CA: EB                                EX      DE,HL
03CB: E1                                POP     HL
03CC: 4B                                LD      C,E
03CD: 7A                                LD      A,D
03CE: 47                                LD      B,A
03CF: B3                                OR      E
03D0: 20 11                             JR      NZ,L03E3
03D2: DD 5E 08                          LD      E,(IX+08h)
03D5: DD 56 09                          LD      D,(IX+09h)
03D8: 7E                                LD      A,(HL)
03D9: 23                                INC     HL
03DA: 66                                LD      H,(HL)
03DB: 6F                                LD      L,A
03DC: C5                                PUSH    BC
03DD: 01 20 00                          LD      BC,0020h
03E0: ED B0                             LDIR
03E2: C1                                POP     BC
03E3: 69                         L03E3: LD      L,C
03E4: 60                                LD      H,B
03E5: DD F9                             LD      SP,IX
03E7: DD E1                             POP     IX
03E9: C9                                RET

                                        ; --- START PROC L03EA ---
03EA: CD 9A 07                   L03EA: CALL    L079A
03ED: 21 E8 FF                          LD      HL,0FFE8h
03F0: 39                                ADD     HL,SP
03F1: F9                                LD      SP,HL
03F2: DD 7E 04                          LD      A,(IX+04h)
03F5: DD 77 F6                          LD      (IX+0F6h),A
03F8: DD 7E 05                          LD      A,(IX+05h)
03FB: DD 77 F7                          LD      (IX+0F7h),A
03FE: DD 6E F6                          LD      L,(IX+0F6h)
0401: DD 66 F7                          LD      H,(IX+0F7h)
0404: 11 16 00                          LD      DE,0016h
0407: 19                                ADD     HL,DE
0408: 7E                                LD      A,(HL)
0409: DD 77 FC                          LD      (IX+0FCh),A
040C: 23                                INC     HL
040D: 7E                                LD      A,(HL)
040E: DD 77 FD                          LD      (IX+0FDh),A
0411: 23                                INC     HL
0412: 7E                                LD      A,(HL)
0413: DD 77 FE                          LD      (IX+0FEh),A
0416: 23                                INC     HL
0417: 7E                                LD      A,(HL)
0418: DD 77 FF                          LD      (IX+0FFh),A
041B: DD 6E F6                          LD      L,(IX+0F6h)
041E: DD 66 F7                          LD      H,(IX+0F7h)
0421: 11 1A 00                          LD      DE,001Ah
0424: 19                                ADD     HL,DE
0425: 4E                                LD      C,(HL)
0426: 23                                INC     HL
0427: 46                                LD      B,(HL)
0428: 23                                INC     HL
0429: 5E                                LD      E,(HL)
042A: 23                                INC     HL
042B: 56                                LD      D,(HL)
042C: DD 7E FC                          LD      A,(IX+0FCh)
042F: 81                                ADD     A,C
0430: 4F                                LD      C,A
0431: DD 7E FD                          LD      A,(IX+0FDh)
0434: 88                                ADC     A,B
0435: 47                                LD      B,A
0436: DD 7E FE                          LD      A,(IX+0FEh)
0439: 8B                                ADC     A,E
043A: 5F                                LD      E,A
043B: DD 7E FF                          LD      A,(IX+0FFh)
043E: 8A                                ADC     A,D
043F: 57                                LD      D,A
0440: DD 71 F2                          LD      (IX+0F2h),C
0443: DD 70 F3                          LD      (IX+0F3h),B
0446: DD 73 F4                          LD      (IX+0F4h),E
0449: DD 72 F5                          LD      (IX+0F5h),D
044C: AF                                XOR     A
044D: DD 77 EE                          LD      (IX+0EEh),A
0450: DD 77 EF                          LD      (IX+0EFh),A
0453: DD 77 F0                          LD      (IX+0F0h),A
0456: DD 77 F1                          LD      (IX+0F1h),A
0459: DD 4E FC                          LD      C,(IX+0FCh)
045C: DD 46 FD                          LD      B,(IX+0FDh)
045F: DD 5E FE                          LD      E,(IX+0FEh)
0462: DD 56 FF                          LD      D,(IX+0FFh)
0465: DD 71 EA                          LD      (IX+0EAh),C
0468: DD 70 EB                          LD      (IX+0EBh),B
046B: DD 73 EC                          LD      (IX+0ECh),E
046E: DD 72 ED                          LD      (IX+0EDh),D
0471: 21 14 00                          LD      HL,0014h
0474: 39                                ADD     HL,SP
0475: EB                                EX      DE,HL
0476: 21 02 00                          LD      HL,0002h
0479: 39                                ADD     HL,SP
047A: 01 04 00                          LD      BC,0004h
047D: ED B0                             LDIR
047F: DD 7E FC                   L047F: LD      A,(IX+0FCh)
0482: DD 96 F2                          SUB     (IX+0F2h)
0485: DD 7E FD                          LD      A,(IX+0FDh)
0488: DD 9E F3                          SBC     A,(IX+0F3h)
048B: DD 7E FE                          LD      A,(IX+0FEh)
048E: DD 9E F4                          SBC     A,(IX+0F4h)
0491: DD 7E FF                          LD      A,(IX+0FFh)
0494: DD 9E F5                          SBC     A,(IX+0F5h)
0497: D2 01 06                          JP      NC,L0601
049A: DD 6E F6                          LD      L,(IX+0F6h)
049D: DD 66 F7                          LD      H,(IX+0F7h)
04A0: 4E                                LD      C,(HL)
04A1: 23                                INC     HL
04A2: 46                                LD      B,(HL)
04A3: DD 6E FE                          LD      L,(IX+0FEh)
04A6: DD 66 FF                          LD      H,(IX+0FFh)
04A9: E5                                PUSH    HL
04AA: DD 6E FC                          LD      L,(IX+0FCh)
04AD: DD 66 FD                          LD      H,(IX+0FDh)
04B0: E5                                PUSH    HL
04B1: DD 6E F6                          LD      L,(IX+0F6h)
04B4: DD 66 F7                          LD      H,(IX+0F7h)
04B7: E5                                PUSH    HL
04B8: 69                                LD      L,C
04B9: 60                                LD      H,B
04BA: CD 99 07                          CALL    L0799
04BD: F1                                POP     AF
04BE: F1                                POP     AF
04BF: F1                                POP     AF
04C0: E5                                PUSH    HL
04C1: FD E1                             POP     IY
04C3: 7C                                LD      A,H
04C4: B5                                OR      L
04C5: 20 06                             JR      NZ,L04CD
04C7: 21 01 00                          LD      HL,0001h
04CA: C3 04 06                          JP      L0604

04CD: DD 4E F6                   L04CD: LD      C,(IX+0F6h)
04D0: DD 46 F7                          LD      B,(IX+0F7h)
04D3: 03                                INC     BC
04D4: 03                                INC     BC
04D5: 69                                LD      L,C
04D6: 60                                LD      H,B
04D7: 5E                                LD      E,(HL)
04D8: 23                                INC     HL
04D9: 56                                LD      D,(HL)
04DA: C5                                PUSH    BC
04DB: FD E5                             PUSH    IY
04DD: 3E 01                             LD      A,01h
04DF: F5                                PUSH    AF
04E0: 33                                INC     SP
04E1: DD 6E FE                          LD      L,(IX+0FEh)
04E4: DD 66 FF                          LD      H,(IX+0FFh)
04E7: E5                                PUSH    HL
04E8: DD 6E FC                          LD      L,(IX+0FCh)
04EB: DD 66 FD                          LD      H,(IX+0FDh)
04EE: E5                                PUSH    HL
04EF: DD 6E F6                          LD      L,(IX+0F6h)
04F2: DD 66 F7                          LD      H,(IX+0F7h)
04F5: E5                                PUSH    HL
04F6: EB                                EX      DE,HL
04F7: CD 99 07                          CALL    L0799
04FA: F1                                POP     AF
04FB: F1                                POP     AF
04FC: F1                                POP     AF
04FD: 33                                INC     SP
04FE: FD E1                             POP     IY
0500: 21 12 00                          LD      HL,0012h
0503: 39                                ADD     HL,SP
0504: EB                                EX      DE,HL
0505: 21 08 00                          LD      HL,0008h
0508: 39                                ADD     HL,SP
0509: 01 04 00                          LD      BC,0004h
050C: ED B0                             LDIR
050E: C1                                POP     BC
050F: FD E5                             PUSH    IY
0511: D1                                POP     DE
0512: 21 00 00                          LD      HL,0000h
0515: E3                                EX      (SP),HL
0516: 1A                         L0516: LD      A,(DE)
0517: B7                                OR      A
0518: 20 06                             JR      NZ,L0520
051A: DD CB 0A 46                       BIT     0,(IX+0Ah)
051E: 28 57                             JR      Z,L0577
0520: C5                         L0520: PUSH    BC
0521: D5                                PUSH    DE
0522: DD 6E 08                          LD      L,(IX+08h)
0525: DD 66 09                          LD      H,(IX+09h)
0528: E5                                PUSH    HL
0529: D5                                PUSH    DE
052A: DD 6E FA                          LD      L,(IX+0FAh)
052D: DD 66 FB                          LD      H,(IX+0FBh)
0530: E5                                PUSH    HL
0531: DD 6E F8                          LD      L,(IX+0F8h)
0534: DD 66 F9                          LD      H,(IX+0F9h)
0537: E5                                PUSH    HL
0538: DD 6E 06                          LD      L,(IX+06h)
053B: DD 66 07                          LD      H,(IX+07h)
053E: CD 99 07                          CALL    L0799
0541: F1                                POP     AF
0542: F1                                POP     AF
0543: F1                                POP     AF
0544: F1                                POP     AF
0545: D1                                POP     DE
0546: C1                                POP     BC
0547: CB 45                             BIT     0,L
0549: 20 2C                             JR      NZ,L0577
054B: 69                                LD      L,C
054C: 60                                LD      H,B
054D: 4E                                LD      C,(HL)
054E: 23                                INC     HL
054F: 46                                LD      B,(HL)
0550: AF                                XOR     A
0551: F5                                PUSH    AF
0552: 33                                INC     SP
0553: DD 6E EC                          LD      L,(IX+0ECh)
0556: DD 66 ED                          LD      H,(IX+0EDh)
0559: E5                                PUSH    HL
055A: DD 6E EA                          LD      L,(IX+0EAh)
055D: DD 66 EB                          LD      H,(IX+0EBh)
0560: E5                                PUSH    HL
0561: DD 6E F6                          LD      L,(IX+0F6h)
0564: DD 66 F7                          LD      H,(IX+0F7h)
0567: E5                                PUSH    HL
0568: 69                                LD      L,C
0569: 60                                LD      H,B
056A: CD 99 07                          CALL    L0799
056D: F1                                POP     AF
056E: F1                                POP     AF
056F: F1                                POP     AF
0570: 33                                INC     SP
0571: 21 07 00                          LD      HL,0007h
0574: C3 04 06                          JP      L0604

0577: DD 34 F8                   L0577: INC     (IX+0F8h)
057A: 20 0D                             JR      NZ,L0589
057C: DD 34 F9                          INC     (IX+0F9h)
057F: 20 08                             JR      NZ,L0589
0581: DD 34 FA                          INC     (IX+0FAh)
0584: 20 03                             JR      NZ,L0589
0586: DD 34 FB                          INC     (IX+0FBh)
0589: D5                         L0589: PUSH    DE
058A: C5                                PUSH    BC
058B: 21 0A 00                          LD      HL,000Ah
058E: 39                                ADD     HL,SP
058F: EB                                EX      DE,HL
0590: 21 14 00                          LD      HL,0014h
0593: 39                                ADD     HL,SP
0594: 01 04 00                          LD      BC,0004h
0597: ED B0                             LDIR
0599: C1                                POP     BC
059A: D1                                POP     DE
059B: 21 20 00                          LD      HL,0020h
059E: 19                                ADD     HL,DE
059F: EB                                EX      DE,HL
05A0: DD 34 E8                          INC     (IX+0E8h)
05A3: 20 03                             JR      NZ,L05A8
05A5: DD 34 E9                          INC     (IX+0E9h)
05A8: DD 7E E8                   L05A8: LD      A,(IX+0E8h)
05AB: D6 10                             SUB     10h
05AD: DD 7E E9                          LD      A,(IX+0E9h)
05B0: 17                                RLA
05B1: 3F                                CCF
05B2: 1F                                RRA
05B3: DE 80                             SBC     A,80h
05B5: DA 16 05                          JP      C,L0516
05B8: 69                                LD      L,C
05B9: 60                                LD      H,B
05BA: 4E                                LD      C,(HL)
05BB: 23                                INC     HL
05BC: 46                                LD      B,(HL)
05BD: AF                                XOR     A
05BE: F5                                PUSH    AF
05BF: 33                                INC     SP
05C0: DD 6E FE                          LD      L,(IX+0FEh)
05C3: DD 66 FF                          LD      H,(IX+0FFh)
05C6: E5                                PUSH    HL
05C7: DD 6E FC                          LD      L,(IX+0FCh)
05CA: DD 66 FD                          LD      H,(IX+0FDh)
05CD: E5                                PUSH    HL
05CE: DD 6E F6                          LD      L,(IX+0F6h)
05D1: DD 66 F7                          LD      H,(IX+0F7h)
05D4: E5                                PUSH    HL
05D5: 69                                LD      L,C
05D6: 60                                LD      H,B
05D7: CD 99 07                          CALL    L0799
05DA: F1                                POP     AF
05DB: F1                                POP     AF
05DC: F1                                POP     AF
05DD: 33                                INC     SP
05DE: DD 34 FC                          INC     (IX+0FCh)
05E1: 20 0D                             JR      NZ,L05F0
05E3: DD 34 FD                          INC     (IX+0FDh)
05E6: 20 08                             JR      NZ,L05F0
05E8: DD 34 FE                          INC     (IX+0FEh)
05EB: 20 03                             JR      NZ,L05F0
05ED: DD 34 FF                          INC     (IX+0FFh)
05F0: 21 02 00                   L05F0: LD      HL,0002h
05F3: 39                                ADD     HL,SP
05F4: EB                                EX      DE,HL
05F5: 21 14 00                          LD      HL,0014h
05F8: 39                                ADD     HL,SP
05F9: 01 04 00                          LD      BC,0004h
05FC: ED B0                             LDIR
05FE: C3 7F 04                          JP      L047F

0601: 21 00 00                   L0601: LD      HL,0000h
0604: DD F9                      L0604: LD      SP,IX
0606: DD E1                             POP     IX
0608: C9                                RET

                                        ; --- START PROC L0609 ---
0609: CD 9A 07                   L0609: CALL    L079A
060C: F5                                PUSH    AF
060D: DD 7E 04                          LD      A,(IX+04h)
0610: DD 77 FE                          LD      (IX+0FEh),A
0613: DD 7E 05                          LD      A,(IX+05h)
0616: DD 77 FF                          LD      (IX+0FFh),A
0619: E1                                POP     HL
061A: E5                                PUSH    HL
061B: 11 2E 00                          LD      DE,002Eh
061E: 19                                ADD     HL,DE
061F: 4E                                LD      C,(HL)
0620: 23                                INC     HL
0621: 46                                LD      B,(HL)
0622: 23                                INC     HL
0623: 5E                                LD      E,(HL)
0624: 23                                INC     HL
0625: 7E                                LD      A,(HL)
0626: B3                                OR      E
0627: B0                                OR      B
0628: B1                                OR      C
0629: 28 05                             JR      Z,L0630
062B: 21 0F 00                          LD      HL,000Fh
062E: 18 1F                             JR      L064F

0630: AF                         L0630: XOR     A
0631: F5                                PUSH    AF
0632: 33                                INC     SP
0633: DD 6E 08                          LD      L,(IX+08h)
0636: DD 66 09                          LD      H,(IX+09h)
0639: E5                                PUSH    HL
063A: DD 6E 06                          LD      L,(IX+06h)
063D: DD 66 07                          LD      H,(IX+07h)
0640: E5                                PUSH    HL
0641: DD 6E FE                          LD      L,(IX+0FEh)
0644: DD 66 FF                          LD      H,(IX+0FFh)
0647: E5                                PUSH    HL
0648: CD EA 03                          CALL    L03EA
064B: F1                                POP     AF
064C: F1                                POP     AF
064D: F1                                POP     AF
064E: 33                                INC     SP
064F: F1                         L064F: POP     AF
0650: DD E1                             POP     IX
0652: C9                                RET

                                        ; --- START PROC L0653 ---
0653: 21 02 00                   L0653: LD      HL,0002h
0656: 39                                ADD     HL,SP
0657: 01 C1 04                          LD      BC,04C1h
065A: ED B3                             OTIR
065C: C9                                RET

065D: 11                         L065D: DB      11h
065E: 32                                DB      32h     ; '2'
065F: F6                                DB      0F6h
0660: 21                                DB      21h     ; '!'
0661: 02                                DB      02h
0662: 00                                DB      00h
0663: 39                                DB      39h     ; '9'
0664: 01                                DB      01h
0665: 04                                DB      04h
0666: 00                                DB      00h
0667: ED                                DB      0EDh
0668: B0                                DB      0B0h
0669: C9                                DB      0C9h
066A: FD                                DB      0FDh
066B: 21                                DB      21h     ; '!'
066C: 32                                DB      32h     ; '2'
066D: F6                                DB      0F6h
066E: FD                                DB      0FDh
066F: 6E                                DB      6Eh     ; 'n'
0670: 00                                DB      00h
0671: FD                                DB      0FDh
0672: 66                                DB      66h     ; 'f'
0673: 01                                DB      01h
0674: FD                                DB      0FDh
0675: 5E                                DB      5Eh     ; '^'
0676: 02                                DB      02h
0677: FD                                DB      0FDh
0678: 56                                DB      56h     ; 'V'
0679: 03                                DB      03h
067A: C9                                DB      0C9h

                                        ; --- START PROC L067B ---
067B: 21 32 F6                   L067B: LD      HL,0F632h
067E: FD 21 02 00                       LD      IY,0002h
0682: FD 39                             ADD     IY,SP
0684: FD 7E 00                          LD      A,(IY+00h)
0687: 86                                ADD     A,(HL)
0688: 4F                                LD      C,A
0689: FD 7E 01                          LD      A,(IY+01h)
068C: 23                                INC     HL
068D: 8E                                ADC     A,(HL)
068E: 47                                LD      B,A
068F: FD 7E 02                          LD      A,(IY+02h)
0692: 23                                INC     HL
0693: 8E                                ADC     A,(HL)
0694: 5F                                LD      E,A
0695: FD 7E 03                          LD      A,(IY+03h)
0698: 23                                INC     HL
0699: 8E                                ADC     A,(HL)
069A: 57                                LD      D,A
069B: D5                                PUSH    DE
069C: C5                                PUSH    BC
069D: CD 53 06                          CALL    L0653
06A0: F1                                POP     AF
06A1: F1                                POP     AF
06A2: C9                                RET

                                        ; --- START PROC L06A3 ---
06A3: CD 9A 07                   L06A3: CALL    L079A
06A6: F5                                PUSH    AF
06A7: DD 4E 04                          LD      C,(IX+04h)
06AA: DD 46 05                          LD      B,(IX+05h)
06AD: 69                                LD      L,C
06AE: 60                                LD      H,B
06AF: 5E                                LD      E,(HL)
06B0: 23                                INC     HL
06B1: 56                                LD      D,(HL)
06B2: C5                                PUSH    BC
06B3: 21 00 00                          LD      HL,0000h
06B6: E5                                PUSH    HL
06B7: 21 00 00                          LD      HL,0000h
06BA: E5                                PUSH    HL
06BB: C5                                PUSH    BC
06BC: EB                                EX      DE,HL
06BD: CD 99 07                          CALL    L0799
06C0: F1                                POP     AF
06C1: F1                                POP     AF
06C2: F1                                POP     AF
06C3: C1                                POP     BC
06C4: 33                                INC     SP
06C5: 33                                INC     SP
06C6: E5                                PUSH    HL
06C7: 7C                                LD      A,H
06C8: B5                                OR      L
06C9: 20 06                             JR      NZ,L06D1
06CB: 21 01 00                          LD      HL,0001h
06CE: C3 52 07                          JP      L0752

06D1: 21 0E 00                   L06D1: LD      HL,000Eh
06D4: 09                                ADD     HL,BC
06D5: 5D                                LD      E,L
06D6: 54                                LD      D,H
06D7: E5                                PUSH    HL
06D8: C5                                PUSH    BC
06D9: DD 6E FE                          LD      L,(IX+0FEh)
06DC: DD 66 FF                          LD      H,(IX+0FFh)
06DF: 01 24 00                          LD      BC,0024h
06E2: ED B0                             LDIR
06E4: C1                                POP     BC
06E5: E1                                POP     HL
06E6: 5E                                LD      E,(HL)
06E7: 23                                INC     HL
06E8: 56                                LD      D,(HL)
06E9: 23                                INC     HL
06EA: 23                                INC     HL
06EB: 7E                                LD      A,(HL)
06EC: 2B                                DEC     HL
06ED: 6E                                LD      L,(HL)
06EE: 67                                LD      H,A
06EF: 7B                                LD      A,E
06F0: D6 6E                             SUB     6Eh     ; 'n'
06F2: 20 0F                             JR      NZ,L0703
06F4: 7A                                LD      A,D
06F5: D6 66                             SUB     66h     ; 'f'
06F7: 20 0A                             JR      NZ,L0703
06F9: 7D                                LD      A,L
06FA: D6 66                             SUB     66h     ; 'f'
06FC: 20 05                             JR      NZ,L0703
06FE: 7C                                LD      A,H
06FF: D6 73                             SUB     73h     ; 's'
0701: 28 05                             JR      Z,L0708
0703: 21 03 00                   L0703: LD      HL,0003h
0706: 18 4A                             JR      L0752

0708: 69                         L0708: LD      L,C
0709: 60                                LD      H,B
070A: 11 12 00                          LD      DE,0012h
070D: 19                                ADD     HL,DE
070E: 5E                                LD      E,(HL)
070F: 23                                INC     HL
0710: 56                                LD      D,(HL)
0711: 23                                INC     HL
0712: 23                                INC     HL
0713: 7E                                LD      A,(HL)
0714: 2B                                DEC     HL
0715: 6E                                LD      L,(HL)
0716: 67                                LD      H,A
0717: 7B                                LD      A,E
0718: B7                                OR      A
0719: 20 0A                             JR      NZ,L0725
071B: B2                                OR      D
071C: 20 07                             JR      NZ,L0725
071E: 2D                                DEC     L
071F: 20 04                             JR      NZ,L0725
0721: 7C                                LD      A,H
0722: B7                                OR      A
0723: 28 05                             JR      Z,L072A
0725: 21 04 00                   L0725: LD      HL,0004h
0728: 18 28                             JR      L0752

072A: 69                         L072A: LD      L,C
072B: 60                                LD      H,B
072C: 11 2E 00                          LD      DE,002Eh
072F: 19                                ADD     HL,DE
0730: 5E                                LD      E,(HL)
0731: 23                                INC     HL
0732: 56                                LD      D,(HL)
0733: 23                                INC     HL
0734: 23                                INC     HL
0735: 7E                                LD      A,(HL)
0736: 2B                                DEC     HL
0737: 6E                                LD      L,(HL)
0738: B5                                OR      L
0739: B2                                OR      D
073A: B3                                OR      E
073B: 28 05                             JR      Z,L0742
073D: 21 0F 00                          LD      HL,000Fh
0740: 18 10                             JR      L0752

0742: 21 0A 00                   L0742: LD      HL,000Ah
0745: 09                                ADD     HL,BC
0746: AF                                XOR     A
0747: 77                                LD      (HL),A
0748: 23                                INC     HL
0749: 77                                LD      (HL),A
074A: 23                                INC     HL
074B: AF                                XOR     A
074C: 77                                LD      (HL),A
074D: 23                                INC     HL
074E: 77                                LD      (HL),A
074F: 21 00 00                          LD      HL,0000h
0752: F1                         L0752: POP     AF
0753: DD E1                             POP     IX
0755: C9                                RET

                                        ; --- START PROC L0756 ---
0756: FD 21 02 00                L0756: LD      IY,0002h
075A: FD 39                             ADD     IY,SP
075C: FD 6E 02                          LD      L,(IY+02h)
075F: FD 66 03                          LD      H,(IY+03h)
0762: E5                                PUSH    HL
0763: FD 6E 00                          LD      L,(IY+00h)
0766: FD 66 01                          LD      H,(IY+01h)
0769: E5                                PUSH    HL
076A: CD 7B 06                          CALL    L067B
076D: F1                                POP     AF
076E: F1                                POP     AF
076F: 3E 01                             LD      A,01h
0771: D3 C7                             OUT     (0C7h),A
0773: DB C7                      L0773: IN      A,(0C7h)
0775: CB 7F                             BIT     7,A
0777: 28 08                             JR      Z,L0781
0779: 2A 36 F6                          LD      HL,(0F636h)
077C: CD 99 07                          CALL    L0799
077F: 18 F2                             JR      L0773

0781: 0F                         L0781: RRCA
0782: 30 03                             JR      NC,L0787
0784: 2E 00                             LD      L,00h
0786: C9                                RET

0787: 21 06 00                   L0787: LD      HL,0006h
078A: 39                                ADD     HL,SP
078B: 7E                                LD      A,(HL)
078C: 23                                INC     HL
078D: 66                                LD      H,(HL)
078E: 6F                                LD      L,A
078F: 01 C0 00                          LD      BC,00C0h
0792: ED B2                             INIR
0794: ED B2                             INIR
0796: 2E 01                             LD      L,01h
0798: C9                                RET

                                        ; --- START PROC L0799 ---
0799: E9                         L0799: JP      (HL)

                                        ; --- START PROC L079A ---
079A: E1                         L079A: POP     HL
079B: DD E5                             PUSH    IX
079D: DD 21 00 00                       LD      IX,0000h
07A1: DD 39                             ADD     IX,SP
07A3: E9                                JP      (HL)

07A4: DD                         L07A4: DB      0DDh
07A5: E5                                DB      0E5h
07A6: DD                                DB      0DDh
07A7: 21                                DB      21h     ; '!'
07A8: 00                                DB      00h
07A9: 00                                DB      00h
07AA: DD                                DB      0DDh
07AB: 39                                DB      39h     ; '9'
07AC: 3B                                DB      3Bh     ; ';'
07AD: DD                                DB      0DDh
07AE: 4E                                DB      4Eh     ; 'N'
07AF: 04                                DB      04h
07B0: DD                                DB      0DDh
07B1: 46                                DB      46h     ; 'F'
07B2: 05                                DB      05h
07B3: DD                                DB      0DDh
07B4: 5E                                DB      5Eh     ; '^'
07B5: 06                                DB      06h
07B6: DD                                DB      0DDh
07B7: 56                                DB      56h     ; 'V'
07B8: 07                                DB      07h
07B9: D5                                DB      0D5h
07BA: FD                                DB      0FDh
07BB: E1                                DB      0E1h
07BC: 0A                                DB      0Ah
07BD: 5F                                DB      5Fh     ; '_'
07BE: 16                                DB      16h
07BF: 00                                DB      00h
07C0: FD                                DB      0FDh
07C1: 7E                                DB      7Eh     ; '~'
07C2: 00                                DB      00h
07C3: DD                                DB      0DDh
07C4: 77                                DB      77h     ; 'w'
07C5: FF                                DB      0FFh
07C6: 6F                                DB      6Fh     ; 'o'
07C7: 26                                DB      26h     ; '&'
07C8: 00                                DB      00h
07C9: 7B                                DB      7Bh     ; '{'
07CA: 95                                DB      95h
07CB: 6F                                DB      6Fh     ; 'o'
07CC: 7A                                DB      7Ah     ; 'z'
07CD: 9C                                DB      9Ch
07CE: 67                                DB      67h     ; 'g'
07CF: B5                                DB      0B5h
07D0: 20                                DB      20h     ; ' '
07D1: 0B                                DB      0Bh
07D2: DD                                DB      0DDh
07D3: 7E                                DB      7Eh     ; '~'
07D4: FF                                DB      0FFh
07D5: B7                                DB      0B7h
07D6: 28                                DB      28h     ; '('
07D7: 05                                DB      05h
07D8: 03                                DB      03h
07D9: FD                                DB      0FDh
07DA: 23                                DB      23h     ; '#'
07DB: 18                                DB      18h
07DC: DF                                DB      0DFh
07DD: 33                                DB      33h     ; '3'
07DE: DD                                DB      0DDh
07DF: E1                                DB      0E1h
07E0: C9                                DB      0C9h

                                        ; --- START PROC L07E1 ---
07E1: C1                         L07E1: POP     BC
07E2: E1                                POP     HL
07E3: E5                                PUSH    HL
07E4: C5                                PUSH    BC
07E5: 4E                         L07E5: LD      C,(HL)
07E6: 79                                LD      A,C
07E7: B7                                OR      A
07E8: 28 0F                             JR      Z,L07F9
07EA: 79                                LD      A,C
07EB: FE 3F                             CP      3Fh     ; '?'
07ED: 28 04                             JR      Z,L07F3
07EF: D6 2A                             SUB     2Ah     ; '*'
07F1: 20 03                             JR      NZ,L07F6
07F3: 2E 01                      L07F3: LD      L,01h
07F5: C9                                RET

07F6: 23                         L07F6: INC     HL
07F7: 18 EC                             JR      L07E5

07F9: 2E 00                      L07F9: LD      L,00h
07FB: C9                                RET

                                        ; --- START PROC L07FC ---
07FC: 21 03 00                   L07FC: LD      HL,0003h
07FF: 39                                ADD     HL,SP
0800: 7E                                LD      A,(HL)
0801: 2B                                DEC     HL
0802: B6                                OR      (HL)
0803: 20 02                             JR      NZ,L0807
0805: 6F                                LD      L,A
0806: C9                                RET

0807: C1                         L0807: POP     BC
0808: E1                                POP     HL
0809: E5                                PUSH    HL
080A: C5                                PUSH    BC
080B: E5                                PUSH    HL
080C: CD 36 08                          CALL    L0836
080F: F1                                POP     AF
0810: 3E 0F                             LD      A,0Fh
0812: BD                                CP      L
0813: 3E 00                             LD      A,00h
0815: 9C                                SBC     A,H
0816: 30 03                             JR      NC,L081B
0818: 2E 00                             LD      L,00h
081A: C9                                RET

081B: C1                         L081B: POP     BC
081C: E1                                POP     HL
081D: E5                                PUSH    HL
081E: C5                                PUSH    BC
081F: E5                                PUSH    HL
0820: CD E1 07                          CALL    L07E1
0823: F1                                POP     AF
0824: CB 45                             BIT     0,L
0826: 28 03                             JR      Z,L082B
0828: 2E 00                             LD      L,00h
082A: C9                                RET

082B: 2E 01                      L082B: LD      L,01h
082D: C9                                RET

                                        ; --- START PROC L082E ---
082E: DB C7                      L082E: IN      A,(0C7h)
0830: E6 40                             AND     40h     ; '@'
0832: 28 FA                             JR      Z,L082E
0834: C9                                RET

0835: C9                         L0835: DB      0C9h

                                        ; --- START PROC L0836 ---
0836: C1                         L0836: POP     BC
0837: E1                                POP     HL
0838: E5                                PUSH    HL
0839: C5                                PUSH    BC
083A: AF                                XOR     A
083B: 47                                LD      B,A
083C: 4F                                LD      C,A
083D: ED B1                             CPIR
083F: 21 FF FF                          LD      HL,0FFFFh
0842: ED 42                             SBC     HL,BC
0844: C9                                RET

0845: 00                         L0845: DB      00h
0846: 00                                DB      00h
0847: 00                                DB      00h
0848: 00                                DB      00h
0849: 35                                DB      35h     ; '5'
084A: 08                                DB      08h

                                        ; --- START PROC L084B ---
084B: 01 06 00                   L084B: LD      BC,0006h
084E: 78                                LD      A,B
084F: B1                                OR      C
0850: 28 08                             JR      Z,L085A
0852: 11 32 F6                          LD      DE,0F632h
0855: 21 45 08                          LD      HL,0845h
0858: ED B0                             LDIR
                                        ; --- START PROC L085A ---
085A: C9                         L085A: RET


references to external address 0F400h:
        011D LD HL,0F400h
        012A LD (0F400h),HL
        0136 LD HL,0F400h
        0174 LD HL,0F400h
        0197 LD HL,0F400h

references to external address 0F402h:
        0130 LD (0F402h),HL

references to external address 0F636h:
        0779 LD HL,(0F636h)

references to external address 0FF00h:
        0104 LD SP,0FF00h
        02A5 LD DE,0FF00h
        02C5 JP 0FF00h

possible references to internal address 0000:
        0112 LD IX,0000h
        02C2 LD DE,0000h
        0371 LD HL,0000h
        0388 LD HL,0000h
        0395 LD HL,0000h
        0512 LD HL,0000h
        0601 LD HL,0000h
        06B3 LD HL,0000h
        06B7 LD HL,0000h
        074F LD HL,0000h
        079D LD IX,0000h

possible references to internal address 0001:
        0189 LD HL,0001h
        04C7 LD HL,0001h
        06CB LD HL,0001h

possible references to internal address 0002:
        02AD LD IY,0002h
        0476 LD HL,0002h
        05F0 LD HL,0002h
        0653 LD HL,0002h
        067E LD IY,0002h
        0756 LD IY,0002h

possible references to internal address 0003:
        0703 LD HL,0003h
        07FC LD HL,0003h

possible references to internal address 0004:
        039B LD HL,0004h
        047A LD BC,0004h
        0509 LD BC,0004h
        0594 LD BC,0004h
        05F9 LD BC,0004h
        0725 LD HL,0004h

possible references to internal address 0005:
        034D LD HL,0005h

possible references to internal address 0006:
        037A LD HL,0006h
        0787 LD HL,0006h
        084B LD BC,0006h

possible references to internal address 0007:
        0571 LD HL,0007h

possible references to internal address 0008:
        03A8 LD HL,0008h
        0505 LD HL,0008h

possible references to internal address 000A:
        058B LD HL,000Ah
        0742 LD HL,000Ah

possible references to internal address 000E:
        06D1 LD HL,000Eh

possible references to internal address 000F:
        062B LD HL,000Fh
        073D LD HL,000Fh

possible references to internal address 0011:
        02A8 LD BC,0011h

possible references to internal address 0012:
        0500 LD HL,0012h
        070A LD DE,0012h

possible references to internal address 0014:
        01E3 LD DE,0014h
        0471 LD HL,0014h
        0590 LD HL,0014h
        05F5 LD HL,0014h

possible references to internal address 0016:
        0404 LD DE,0016h

possible references to internal address 001A:
        0421 LD DE,001Ah

possible references to internal address 0020:
        03DD LD BC,0020h
        059B LD HL,0020h

possible references to internal address 0024:
        06DF LD BC,0024h

possible references to internal address 002E:
        061B LD DE,002Eh
        072C LD DE,002Eh

possible references to internal address 00C0:
        078F LD BC,00C0h

possible references to internal address 01C6:
        014B LD DE,01C6h

possible references to internal address 0200:
        0237 LD HL,0200h

possible references to internal address 026B:
        0193 LD HL,026Bh

possible references to internal address 0277:
        0127 LD HL,0277h

possible references to internal address 02A1:
        012D LD HL,02A1h

possible references to internal address 02C8:
        02A2 LD HL,02C8h

possible references to internal address 02DA:
        035E LD HL,02DAh

possible references to internal address 04C1:
        0657 LD BC,04C1h

possible references to internal address 0845:
        0855 LD HL,0845h

possible references to external address 4000h:
        01D6 LD BC,4000h
        02BF LD HL,4000h

possible references to external address 0C000h:
        02B9 LD BC,0C000h

possible references to external address 0F400h:
        011D LD HL,0F400h
        0136 LD HL,0F400h
        0174 LD HL,0F400h
        0197 LD HL,0F400h
        ----------
        012A LD (0F400h),HL

possible references to external address 0F432h:
        0148 LD HL,0F432h

possible references to external address 0F632h:
        0150 LD IY,0F632h
        067B LD HL,0F632h
        0852 LD DE,0F632h

possible references to external address 0FF00h:
        0104 LD SP,0FF00h
        02A5 LD DE,0FF00h
        ----------
        02C5 JP 0FF00h

possible references to external address 0FFD3h:
        0118 LD HL,0FFD3h

possible references to external address 0FFE8h:
        03ED LD HL,0FFE8h

possible references to external address 0FFF6h:
        0383 LD HL,0FFF6h

possible references to external address 0FFFFh:
        083F LD HL,0FFFFh

references to port 0A0h
        0184 OUT (0A0h),A
        01A8 OUT (0A0h),A
        0233 OUT (0A0h),A

references to port 0C7h
        0773 IN A,(0C7h)
        082E IN A,(0C7h)
        0771 OUT (0C7h),A

Procedures (19):
  Proc  Length  References Dependants
  L0000  010F            0          2
  L0110  015B            1          5
  L02A2  0026            1          1
  L0332  004E            1          3
  L0380  006A            1          2
  L03EA  021F            1          2
  L0609  004A            1          2
  L0653  000A            1          0
  L067B  0028            1          1
  L06A3  00B3            2          2
  L0756  0043            1          2
  L0799  0001            7          0
  L079A  000A            5          0
  L07E1  001B            1          0
  L07FC  0032            1          2
  L082E  0007            2          0
  L0836  000F            1          0
  L084B  0010            1          1
  L085A  0001            1          0

Call Graph:
L0000 - Entry Point
  L084B
    L085A
  L0110
    L082E
    L06A3
      L079A
      L0799
    L0380
      L079A
      L0332
        L079A
        L07FC
          L0836
          L07E1
        L0609
          L079A
          L03EA
            L079A
            L0799
    L0756
      L067B
        L0653
      L0799
    L02A2
      0FF00h - External
